Quick Sensitivity Analyses in R-David D. Hofmann | UZH
…
# Specify the different treatment combinations, as well as the number of
# replicates
design <- expand_grid(
    temp_beta_1    = c(0.2, 0.3, 0.4)
  , popsize_beta_1 = c(-0.1, -0.3, -0.5)
  , replicate      = 1:100
)
print(design, n = 5)

## # A tibble: 900 x 3
##   temp_beta_1 popsize_beta_1 replicate
##         <dbl>          <dbl>     <int>
## 1         0.2           -0.1         1
## 2         0.2           -0.1         2
## 3         0.2           -0.1         3
## 4         0.2           -0.1         4
## 5         0.2           -0.1         5
## # … with 895 more rows
…
  # Coerce the Year column from character to numeric
  population$Year <- as.numeric(population$Year)

  # Return the simulated and tidied data
  return(population)
})

# Let's take a look at the produced object
print(design, n = 5)

## # A tibble: 900 x 4
##   temp_beta_1 popsize_beta_1 replicate Simulation        
##         <dbl>          <dbl>     <int> <list>            
## 1         0.2           -0.1         1 <df[,3] [200 × 3]>
## 2         0.2           -0.1         2 <df[,3] [200 × 3]>
## 3         0.2           -0.1         3 <df[,3] [200 × 3]>
## 4         0.2           -0.1         4 <df[,3] [200 × 3]>
## 5         0.2           -0.1         5 <df[,3] [200 × 3]>
## # … with 895 more rows

As you can see, each row of the “design” tibble now contains the simulated data
belonging to the respective parameter set. This makes it very easy to keep track
of the different simulations and their parameters. Moreover, we can subset and
access simulations as we wish.

# Take a subset and unnest
design %>%
  subset(temp_beta_1 == 0.2) %>%
  unnest(Simulation)

## # A tibble: 60,000 x 6
##    temp_beta_1 popsize_beta_1 replicate Stage      Year Count
##          <dbl>          <dbl>     <int> <fct>     <dbl> <dbl>
##  1         0.2           -0.1         1 Juveniles     1 10   
##  2         0.2           -0.1         1 Adults        1 10   
##  3         0.2           -0.1         1 Juveniles     2  7.31
##  4         0.2           -0.1         1 Adults        2  9.84
##  5         0.2           -0.1         1 Juveniles     3  7.71
##  6         0.2           -0.1         1 Adults        3  9.10
##  7         0.2           -0.1         1 Juveniles     4  7.18
##  8         0.2           -0.1         1 Adults        4  8.96
##  9         0.2           -0.1         1 Juveniles     5  7.17
## 10         0.2           -0.1         1 Adults        5  8.98
## # … with 59,990 more rows

# Take a subset and unnest
design %>%
  subset(temp_beta_1 == 0.2 & popsize_beta_1 == -0.5) %>%
  unnest(Simulation)

## # A tibble: 20,000 x 6
##    temp_beta_1 popsize_beta_1 replicate Stage      Year    Count
##          <dbl>          <dbl>     <int> <fct>     <dbl>    <dbl>
##  1         0.2           -0.5         1 Juveniles     1 10      
##  2         0.2           -0.5         1 Adults        1 10      
##  3         0.2           -0.5         1 Juveniles     2  0.00911
##  4         0.2           -0.5         1 Adults        2 10.5    
##  5         0.2           -0.5         1 Juveniles     3  1.00   
##  6         0.2           -0.5         1 Adults        3  9.43   
##  7         0.2           -0.5         1 Juveniles     4  0.925  
##  8         0.2           -0.5         1 Adults        4  8.51   
##  9         0.2           -0.5         1 Juveniles     5  1.29   
## 10         0.2           -0.5         1 Adults        5  7.73   
## # … with 19,990 more rows
…
