Quick Sensitivity Analyses in R | David D. Hofmann | UZH
…
# Specify the different treatment combinations, as well as the number of
# replicates. The function will then automatically generate all unique
# combinations.
design <- expand_grid(
    temp_beta_1    = c(0.2, 0.3, 0.4)
  , popsize_beta_1 = c(-0.1, -0.3, -0.5)
  , replicate      = 1:100
)
print(design, n = 5)

## # A tibble: 900 × 3
##   temp_beta_1 popsize_beta_1 replicate
##         <dbl>          <dbl>     <int>
## 1         0.2           -0.1         1
## 2         0.2           -0.1         2
## 3         0.2           -0.1         3
## 4         0.2           -0.1         4
## 5         0.2           -0.1         5
## # ℹ 895 more rows
…
  # Coerce the Year column from character to numeric
  population$Year <- as.numeric(population$Year)

  # Return the simulated and tidied data
  return(population)
})

# Let's take a look at the produced object
print(design, n = 5)

## # A tibble: 900 × 4
##   temp_beta_1 popsize_beta_1 replicate Simulation    
##         <dbl>          <dbl>     <int> <list>        
## 1         0.2           -0.1         1 <df [200 × 3]>
## 2         0.2           -0.1         2 <df [200 × 3]>
## 3         0.2           -0.1         3 <df [200 × 3]>
## 4         0.2           -0.1         4 <df [200 × 3]>
## 5         0.2           -0.1         5 <df [200 × 3]>
## # ℹ 895 more rows

As you can see, each row of the “design” tibble now contains the simulated data
belonging to the respective parameter set. This makes it very easy to keep track
of the different simulations and the employed parameters. Moreover, we can
subset and access simulations as we wish. For this, we simply subset the data
according to our likings, and unnest the remaining rows (i.e. un-collapse the
stored dataframes).

# Take a subset and unnest
design %>%
  subset(temp_beta_1 == 0.2) %>%
  unnest(Simulation)

## # A tibble: 60,000 × 6
##    temp_beta_1 popsize_beta_1 replicate Stage      Year Count
##          <dbl>          <dbl>     <int> <chr>     <dbl> <dbl>
##  1         0.2           -0.1         1 Juveniles     1 10   
##  2         0.2           -0.1         1 Adults        1 10   
##  3         0.2           -0.1         1 Juveniles     2  7.31
##  4         0.2           -0.1         1 Adults        2 10.1 
##  5         0.2           -0.1         1 Juveniles     3  7.89
##  6         0.2           -0.1         1 Adults        3  9.54
##  7         0.2           -0.1         1 Juveniles     4  7.43
##  8         0.2           -0.1         1 Adults        4  8.78
##  9         0.2           -0.1         1 Juveniles     5  7.02
## 10         0.2           -0.1         1 Adults        5  8.23
## # ℹ 59,990 more rows

# Take a subset and unnest
design %>%
  subset(temp_beta_1 == 0.2 & popsize_beta_1 == -0.5) %>%
  unnest(Simulation)

## # A tibble: 20,000 × 6
##    temp_beta_1 popsize_beta_1 replicate Stage      Year    Count
##          <dbl>          <dbl>     <int> <chr>     <dbl>    <dbl>
##  1         0.2           -0.5         1 Juveniles     1 10      
##  2         0.2           -0.5         1 Adults        1 10      
##  3         0.2           -0.5         1 Juveniles     2  0.00911
##  4         0.2           -0.5         1 Adults        2  9.84   
##  5         0.2           -0.5         1 Juveniles     3  1.25   
##  6         0.2           -0.5         1 Adults        3  8.86   
##  7         0.2           -0.5         1 Juveniles     4  1.01   
##  8         0.2           -0.5         1 Adults        4  8.12   
##  9         0.2           -0.5         1 Juveniles     5  1.41   
## 10         0.2           -0.5         1 Adults        5  7.41   
## # ℹ 19,990 more rows
…
